{
  "web": {
    "client_id": "272339275617-e6hv110s5m1iu83qqfojg0cbu0o1bi4a.apps.googleusercontent.com",
    "project_id": "wwwc57fr",
    "auth_uri": "https://accounts.google.com/o/oauth2/auth",
    "token_uri": "https://oauth2.googleapis.com/token",
    "auth_provider_x509_cert_url": "https://www.googleapis.com/oauth2/v1/certs",
    "client_secret": "D4_YBOn-7ZnpV1fb7QbFkwJj",
    "redirect_uris": [
      "https://c57.fr"
    ],
    "javascript_origins": [
      "https://c57.fr"
    ]
  }
}